G75*
G70*
%OFA0B0*%
%FSLAX24Y24*%
%IPPOS*%
%LPD*%
%AMOC8*
5,1,8,0,0,1.08239X$1,22.5*
%
%ADD10OC8,0.0540*%
%ADD11R,0.0760X0.0760*%
%ADD12C,0.0760*%
D10*
X007880Y002280D03*
X007880Y005280D03*
X007930Y007530D03*
X007930Y010530D03*
X007930Y012180D03*
X007930Y014180D03*
D11*
X008930Y014180D03*
X009930Y014180D03*
X000930Y014180D03*
X011180Y001180D03*
D12*
X000930Y001180D03*
X000930Y002180D03*
X000930Y003180D03*
X000930Y004180D03*
X000930Y005180D03*
X000930Y006180D03*
X000930Y007180D03*
X000930Y008180D03*
X000930Y009180D03*
X000930Y010180D03*
X000930Y011180D03*
X000930Y012180D03*
X000930Y013180D03*
X006930Y013180D03*
X006930Y012180D03*
X006930Y011180D03*
X006930Y010180D03*
X006930Y009180D03*
X006930Y008180D03*
X006930Y007180D03*
X006930Y006180D03*
X006930Y005180D03*
X006930Y004180D03*
X006930Y003180D03*
X006930Y002180D03*
X006930Y001180D03*
X008930Y003180D03*
X009930Y003180D03*
X009930Y004180D03*
X009930Y005180D03*
X008930Y005180D03*
X008930Y004180D03*
X008930Y006180D03*
X008930Y007180D03*
X009930Y007180D03*
X009930Y006180D03*
X009930Y008180D03*
X009930Y009180D03*
X008930Y009180D03*
X008930Y008180D03*
X008930Y010180D03*
X008930Y011180D03*
X009930Y011180D03*
X009930Y010180D03*
X009930Y012180D03*
X009930Y013180D03*
X008930Y013180D03*
X008930Y012180D03*
X006930Y014180D03*
X014930Y014180D03*
X015930Y014180D03*
X015930Y013180D03*
X015930Y012180D03*
X014930Y012180D03*
X014930Y013180D03*
X014930Y011180D03*
X014930Y010180D03*
X015930Y010180D03*
X015930Y011180D03*
X015930Y009180D03*
X015930Y008180D03*
X014930Y008180D03*
X014930Y009180D03*
X014930Y007180D03*
X014930Y006180D03*
X015930Y006180D03*
X015930Y007180D03*
X015930Y005180D03*
X015930Y004180D03*
X014930Y004180D03*
X014930Y005180D03*
X014930Y003180D03*
X015930Y003180D03*
X013180Y001180D03*
X012180Y001180D03*
M02*
